<?php

namespace classes\application
{

	class functions {

		function functions () {
		}

		public function pre($input,$die='0'){
			echo"<pre>";
			print_r($input);
			echo"</pre>";
			if($die=='1') die();
		}

	}

}

?>

